%YAML 1.1
%TAG !u! tag:unity3d.com,2011:
--- !u!114 &11400000
MonoBehaviour:
  m_ObjectHideFlags: 0
  m_CorrespondingSourceObject: {fileID: 0}
  m_PrefabInstance: {fileID: 0}
  m_PrefabAsset: {fileID: 0}
  m_GameObject: {fileID: 0}
  m_Enabled: 1
  m_EditorHideFlags: 0
  m_Script: {fileID: 11500000, guid: ae975e24a0b9def4a80d51adaa078c5a, type: 3}
  m_Name: Level 2
  m_EditorClassIdentifier: 
  question: {fileID: 21300000, guid: 24963860e99cafb42bf06b1efa0a18e9, type: 3}
