%YAML 1.1
%TAG !u! tag:unity3d.com,2011:
--- !u!1001 &4219382409164123533
PrefabInstance:
  m_ObjectHideFlags: 0
  serializedVersion: 2
  m_Modification:
    m_TransformParent: {fileID: 0}
    m_Modifications:
    - target: {fileID: 3537965047154056274, guid: 7e0c3459e0318b64ebffea1444e0b529,
        type: 3}
      propertyPath: m_Name
      value: Trash Glass Vaso
      objectReference: {fileID: 0}
    - target: {fileID: 3603279205542187770, guid: 7e0c3459e0318b64ebffea1444e0b529,
        type: 3}
      propertyPath: m_LocalPosition.x
      value: 0
      objectReference: {fileID: 0}
    - target: {fileID: 3603279205542187770, guid: 7e0c3459e0318b64ebffea1444e0b529,
        type: 3}
      propertyPath: m_LocalPosition.y
      value: 0
      objectReference: {fileID: 0}
    - target: {fileID: 3603279205542187770, guid: 7e0c3459e0318b64ebffea1444e0b529,
        type: 3}
      propertyPath: m_LocalPosition.z
      value: 0
      objectReference: {fileID: 0}
    - target: {fileID: 3603279205542187770, guid: 7e0c3459e0318b64ebffea1444e0b529,
        type: 3}
      propertyPath: m_LocalRotation.x
      value: 0
      objectReference: {fileID: 0}
    - target: {fileID: 3603279205542187770, guid: 7e0c3459e0318b64ebffea1444e0b529,
        type: 3}
      propertyPath: m_LocalRotation.y
      value: 0
      objectReference: {fileID: 0}
    - target: {fileID: 3603279205542187770, guid: 7e0c3459e0318b64ebffea1444e0b529,
        type: 3}
      propertyPath: m_LocalRotation.z
      value: 0
      objectReference: {fileID: 0}
    - target: {fileID: 3603279205542187770, guid: 7e0c3459e0318b64ebffea1444e0b529,
        type: 3}
      propertyPath: m_LocalRotation.w
      value: 1
      objectReference: {fileID: 0}
    - target: {fileID: 3603279205542187770, guid: 7e0c3459e0318b64ebffea1444e0b529,
        type: 3}
      propertyPath: m_RootOrder
      value: 0
      objectReference: {fileID: 0}
    - target: {fileID: 3603279205542187770, guid: 7e0c3459e0318b64ebffea1444e0b529,
        type: 3}
      propertyPath: m_LocalEulerAnglesHint.x
      value: 0
      objectReference: {fileID: 0}
    - target: {fileID: 3603279205542187770, guid: 7e0c3459e0318b64ebffea1444e0b529,
        type: 3}
      propertyPath: m_LocalEulerAnglesHint.y
      value: 0
      objectReference: {fileID: 0}
    - target: {fileID: 3603279205542187770, guid: 7e0c3459e0318b64ebffea1444e0b529,
        type: 3}
      propertyPath: m_LocalEulerAnglesHint.z
      value: 0
      objectReference: {fileID: 0}
    - target: {fileID: 3603279205542187770, guid: 7e0c3459e0318b64ebffea1444e0b529,
        type: 3}
      propertyPath: m_AnchoredPosition.x
      value: 0
      objectReference: {fileID: 0}
    - target: {fileID: 3603279205542187770, guid: 7e0c3459e0318b64ebffea1444e0b529,
        type: 3}
      propertyPath: m_AnchoredPosition.y
      value: 0
      objectReference: {fileID: 0}
    - target: {fileID: 3603279205542187770, guid: 7e0c3459e0318b64ebffea1444e0b529,
        type: 3}
      propertyPath: m_SizeDelta.x
      value: 32
      objectReference: {fileID: 0}
    - target: {fileID: 3603279205542187770, guid: 7e0c3459e0318b64ebffea1444e0b529,
        type: 3}
      propertyPath: m_SizeDelta.y
      value: 32
      objectReference: {fileID: 0}
    - target: {fileID: 3603279205542187770, guid: 7e0c3459e0318b64ebffea1444e0b529,
        type: 3}
      propertyPath: m_AnchorMin.x
      value: 0.5
      objectReference: {fileID: 0}
    - target: {fileID: 3603279205542187770, guid: 7e0c3459e0318b64ebffea1444e0b529,
        type: 3}
      propertyPath: m_AnchorMin.y
      value: 0.5
      objectReference: {fileID: 0}
    - target: {fileID: 3603279205542187770, guid: 7e0c3459e0318b64ebffea1444e0b529,
        type: 3}
      propertyPath: m_AnchorMax.x
      value: 0.5
      objectReference: {fileID: 0}
    - target: {fileID: 3603279205542187770, guid: 7e0c3459e0318b64ebffea1444e0b529,
        type: 3}
      propertyPath: m_AnchorMax.y
      value: 0.5
      objectReference: {fileID: 0}
    - target: {fileID: 3603279205542187770, guid: 7e0c3459e0318b64ebffea1444e0b529,
        type: 3}
      propertyPath: m_Pivot.x
      value: 0.5
      objectReference: {fileID: 0}
    - target: {fileID: 3603279205542187770, guid: 7e0c3459e0318b64ebffea1444e0b529,
        type: 3}
      propertyPath: m_Pivot.y
      value: 0.5
      objectReference: {fileID: 0}
    - target: {fileID: 3497139366298715982, guid: 7e0c3459e0318b64ebffea1444e0b529,
        type: 3}
      propertyPath: m_Sprite
      value: 
      objectReference: {fileID: 21300000, guid: 4fa31024c2d31514dbe891441cf33e35,
        type: 3}
    m_RemovedComponents: []
  m_SourcePrefab: {fileID: 100100000, guid: 7e0c3459e0318b64ebffea1444e0b529, type: 3}
