%YAML 1.1
%TAG !u! tag:unity3d.com,2011:
--- !u!114 &11400000
MonoBehaviour:
  m_ObjectHideFlags: 0
  m_CorrespondingSourceObject: {fileID: 0}
  m_PrefabInstance: {fileID: 0}
  m_PrefabAsset: {fileID: 0}
  m_GameObject: {fileID: 0}
  m_Enabled: 1
  m_EditorHideFlags: 0
  m_Script: {fileID: 11500000, guid: 05c75e26fa2b4ec48a0ddc1a8eba2798, type: 3}
  m_Name: TQuestion Level 15
  m_EditorClassIdentifier: 
  question: El Bufeo fue declarado ____
  options:
  - PATRIMONIO NATURAL
  - 'ESPECIE EXTINTA '
  - ESPECIE NOCIVA PARA EL ECOSISTEMA
