%YAML 1.1
%TAG !u! tag:unity3d.com,2011:
--- !u!1001 &814246579009261069
PrefabInstance:
  m_ObjectHideFlags: 0
  serializedVersion: 2
  m_Modification:
    m_TransformParent: {fileID: 0}
    m_Modifications:
    - target: {fileID: 3760561838589858403, guid: 4ba24af6868056946bc74e75c8ce625e,
        type: 3}
      propertyPath: m_Name
      value: base
      objectReference: {fileID: 0}
    - target: {fileID: 7641095395427967129, guid: 4ba24af6868056946bc74e75c8ce625e,
        type: 3}
      propertyPath: m_LocalPosition.x
      value: 0
      objectReference: {fileID: 0}
    - target: {fileID: 7641095395427967129, guid: 4ba24af6868056946bc74e75c8ce625e,
        type: 3}
      propertyPath: m_LocalPosition.y
      value: 0
      objectReference: {fileID: 0}
    - target: {fileID: 7641095395427967129, guid: 4ba24af6868056946bc74e75c8ce625e,
        type: 3}
      propertyPath: m_LocalPosition.z
      value: 0
      objectReference: {fileID: 0}
    - target: {fileID: 7641095395427967129, guid: 4ba24af6868056946bc74e75c8ce625e,
        type: 3}
      propertyPath: m_LocalRotation.x
      value: -0
      objectReference: {fileID: 0}
    - target: {fileID: 7641095395427967129, guid: 4ba24af6868056946bc74e75c8ce625e,
        type: 3}
      propertyPath: m_LocalRotation.y
      value: -0
      objectReference: {fileID: 0}
    - target: {fileID: 7641095395427967129, guid: 4ba24af6868056946bc74e75c8ce625e,
        type: 3}
      propertyPath: m_LocalRotation.z
      value: -0
      objectReference: {fileID: 0}
    - target: {fileID: 7641095395427967129, guid: 4ba24af6868056946bc74e75c8ce625e,
        type: 3}
      propertyPath: m_LocalRotation.w
      value: 1
      objectReference: {fileID: 0}
    - target: {fileID: 7641095395427967129, guid: 4ba24af6868056946bc74e75c8ce625e,
        type: 3}
      propertyPath: m_RootOrder
      value: 0
      objectReference: {fileID: 0}
    - target: {fileID: 7641095395427967129, guid: 4ba24af6868056946bc74e75c8ce625e,
        type: 3}
      propertyPath: m_LocalEulerAnglesHint.x
      value: 0
      objectReference: {fileID: 0}
    - target: {fileID: 7641095395427967129, guid: 4ba24af6868056946bc74e75c8ce625e,
        type: 3}
      propertyPath: m_LocalEulerAnglesHint.y
      value: 0
      objectReference: {fileID: 0}
    - target: {fileID: 7641095395427967129, guid: 4ba24af6868056946bc74e75c8ce625e,
        type: 3}
      propertyPath: m_LocalEulerAnglesHint.z
      value: 0
      objectReference: {fileID: 0}
    - target: {fileID: 7641095395427967129, guid: 4ba24af6868056946bc74e75c8ce625e,
        type: 3}
      propertyPath: m_AnchoredPosition.x
      value: 6.54
      objectReference: {fileID: 0}
    - target: {fileID: 7641095395427967129, guid: 4ba24af6868056946bc74e75c8ce625e,
        type: 3}
      propertyPath: m_AnchoredPosition.y
      value: -61.4
      objectReference: {fileID: 0}
    - target: {fileID: 7641095395427967129, guid: 4ba24af6868056946bc74e75c8ce625e,
        type: 3}
      propertyPath: m_SizeDelta.x
      value: 55.4
      objectReference: {fileID: 0}
    - target: {fileID: 7641095395427967129, guid: 4ba24af6868056946bc74e75c8ce625e,
        type: 3}
      propertyPath: m_SizeDelta.y
      value: 79.72
      objectReference: {fileID: 0}
    - target: {fileID: 7641095395427967129, guid: 4ba24af6868056946bc74e75c8ce625e,
        type: 3}
      propertyPath: m_AnchorMin.x
      value: 0.5
      objectReference: {fileID: 0}
    - target: {fileID: 7641095395427967129, guid: 4ba24af6868056946bc74e75c8ce625e,
        type: 3}
      propertyPath: m_AnchorMin.y
      value: 0.5
      objectReference: {fileID: 0}
    - target: {fileID: 7641095395427967129, guid: 4ba24af6868056946bc74e75c8ce625e,
        type: 3}
      propertyPath: m_AnchorMax.x
      value: 0.5
      objectReference: {fileID: 0}
    - target: {fileID: 7641095395427967129, guid: 4ba24af6868056946bc74e75c8ce625e,
        type: 3}
      propertyPath: m_AnchorMax.y
      value: 0.5
      objectReference: {fileID: 0}
    - target: {fileID: 7641095395427967129, guid: 4ba24af6868056946bc74e75c8ce625e,
        type: 3}
      propertyPath: m_Pivot.x
      value: 0.5
      objectReference: {fileID: 0}
    - target: {fileID: 7641095395427967129, guid: 4ba24af6868056946bc74e75c8ce625e,
        type: 3}
      propertyPath: m_Pivot.y
      value: 0.5
      objectReference: {fileID: 0}
    m_RemovedComponents: []
  m_SourcePrefab: {fileID: 100100000, guid: 4ba24af6868056946bc74e75c8ce625e, type: 3}
