%YAML 1.1
%TAG !u! tag:unity3d.com,2011:
--- !u!1001 &4449676970626040186
PrefabInstance:
  m_ObjectHideFlags: 0
  serializedVersion: 2
  m_Modification:
    m_TransformParent: {fileID: 0}
    m_Modifications:
    - target: {fileID: 4115400243887496042, guid: c8c04f24d97f9d149a6ecfd9f9e314d1,
        type: 3}
      propertyPath: m_Name
      value: POI
      objectReference: {fileID: 0}
    - target: {fileID: 4115400243887496042, guid: c8c04f24d97f9d149a6ecfd9f9e314d1,
        type: 3}
      propertyPath: m_IsActive
      value: 1
      objectReference: {fileID: 0}
    - target: {fileID: 8472405742645666893, guid: c8c04f24d97f9d149a6ecfd9f9e314d1,
        type: 3}
      propertyPath: m_LocalPosition.x
      value: 0
      objectReference: {fileID: 0}
    - target: {fileID: 8472405742645666893, guid: c8c04f24d97f9d149a6ecfd9f9e314d1,
        type: 3}
      propertyPath: m_LocalPosition.y
      value: 0
      objectReference: {fileID: 0}
    - target: {fileID: 8472405742645666893, guid: c8c04f24d97f9d149a6ecfd9f9e314d1,
        type: 3}
      propertyPath: m_LocalPosition.z
      value: 0
      objectReference: {fileID: 0}
    - target: {fileID: 8472405742645666893, guid: c8c04f24d97f9d149a6ecfd9f9e314d1,
        type: 3}
      propertyPath: m_LocalRotation.x
      value: -0
      objectReference: {fileID: 0}
    - target: {fileID: 8472405742645666893, guid: c8c04f24d97f9d149a6ecfd9f9e314d1,
        type: 3}
      propertyPath: m_LocalRotation.y
      value: -0
      objectReference: {fileID: 0}
    - target: {fileID: 8472405742645666893, guid: c8c04f24d97f9d149a6ecfd9f9e314d1,
        type: 3}
      propertyPath: m_LocalRotation.z
      value: -0
      objectReference: {fileID: 0}
    - target: {fileID: 8472405742645666893, guid: c8c04f24d97f9d149a6ecfd9f9e314d1,
        type: 3}
      propertyPath: m_LocalRotation.w
      value: 1
      objectReference: {fileID: 0}
    - target: {fileID: 8472405742645666893, guid: c8c04f24d97f9d149a6ecfd9f9e314d1,
        type: 3}
      propertyPath: m_RootOrder
      value: 0
      objectReference: {fileID: 0}
    - target: {fileID: 8472405742645666893, guid: c8c04f24d97f9d149a6ecfd9f9e314d1,
        type: 3}
      propertyPath: m_LocalEulerAnglesHint.x
      value: 0
      objectReference: {fileID: 0}
    - target: {fileID: 8472405742645666893, guid: c8c04f24d97f9d149a6ecfd9f9e314d1,
        type: 3}
      propertyPath: m_LocalEulerAnglesHint.y
      value: 0
      objectReference: {fileID: 0}
    - target: {fileID: 8472405742645666893, guid: c8c04f24d97f9d149a6ecfd9f9e314d1,
        type: 3}
      propertyPath: m_LocalEulerAnglesHint.z
      value: 0
      objectReference: {fileID: 0}
    - target: {fileID: 8472405742645666893, guid: c8c04f24d97f9d149a6ecfd9f9e314d1,
        type: 3}
      propertyPath: m_AnchoredPosition.x
      value: -239
      objectReference: {fileID: 0}
    - target: {fileID: 8472405742645666893, guid: c8c04f24d97f9d149a6ecfd9f9e314d1,
        type: 3}
      propertyPath: m_AnchoredPosition.y
      value: 812
      objectReference: {fileID: 0}
    - target: {fileID: 8472405742645666893, guid: c8c04f24d97f9d149a6ecfd9f9e314d1,
        type: 3}
      propertyPath: m_SizeDelta.x
      value: 104.3
      objectReference: {fileID: 0}
    - target: {fileID: 8472405742645666893, guid: c8c04f24d97f9d149a6ecfd9f9e314d1,
        type: 3}
      propertyPath: m_SizeDelta.y
      value: 73.8
      objectReference: {fileID: 0}
    - target: {fileID: 8472405742645666893, guid: c8c04f24d97f9d149a6ecfd9f9e314d1,
        type: 3}
      propertyPath: m_AnchorMin.x
      value: 0.5
      objectReference: {fileID: 0}
    - target: {fileID: 8472405742645666893, guid: c8c04f24d97f9d149a6ecfd9f9e314d1,
        type: 3}
      propertyPath: m_AnchorMin.y
      value: 0.5
      objectReference: {fileID: 0}
    - target: {fileID: 8472405742645666893, guid: c8c04f24d97f9d149a6ecfd9f9e314d1,
        type: 3}
      propertyPath: m_AnchorMax.x
      value: 0.5
      objectReference: {fileID: 0}
    - target: {fileID: 8472405742645666893, guid: c8c04f24d97f9d149a6ecfd9f9e314d1,
        type: 3}
      propertyPath: m_AnchorMax.y
      value: 0.5
      objectReference: {fileID: 0}
    - target: {fileID: 8472405742645666893, guid: c8c04f24d97f9d149a6ecfd9f9e314d1,
        type: 3}
      propertyPath: m_Pivot.x
      value: 0.5
      objectReference: {fileID: 0}
    - target: {fileID: 8472405742645666893, guid: c8c04f24d97f9d149a6ecfd9f9e314d1,
        type: 3}
      propertyPath: m_Pivot.y
      value: 0.5
      objectReference: {fileID: 0}
    - target: {fileID: 6277766264471235736, guid: c8c04f24d97f9d149a6ecfd9f9e314d1,
        type: 3}
      propertyPath: minigames.Array.size
      value: 30
      objectReference: {fileID: 0}
    - target: {fileID: 6277766264471235736, guid: c8c04f24d97f9d149a6ecfd9f9e314d1,
        type: 3}
      propertyPath: levelsInstantiation.holder
      value: 
      objectReference: {fileID: 0}
    - target: {fileID: 6277766264471235736, guid: c8c04f24d97f9d149a6ecfd9f9e314d1,
        type: 3}
      propertyPath: minigames.Array.data[1].levelID
      value: 1
      objectReference: {fileID: 0}
    - target: {fileID: 6277766264471235736, guid: c8c04f24d97f9d149a6ecfd9f9e314d1,
        type: 3}
      propertyPath: minigames.Array.data[2].levelID
      value: 2
      objectReference: {fileID: 0}
    - target: {fileID: 6277766264471235736, guid: c8c04f24d97f9d149a6ecfd9f9e314d1,
        type: 3}
      propertyPath: minigames.Array.data[3].levelID
      value: 3
      objectReference: {fileID: 0}
    - target: {fileID: 6277766264471235736, guid: c8c04f24d97f9d149a6ecfd9f9e314d1,
        type: 3}
      propertyPath: minigames.Array.data[4].levelID
      value: 4
      objectReference: {fileID: 0}
    - target: {fileID: 6277766264471235736, guid: c8c04f24d97f9d149a6ecfd9f9e314d1,
        type: 3}
      propertyPath: minigames.Array.data[5].levelID
      value: 5
      objectReference: {fileID: 0}
    - target: {fileID: 6277766264471235736, guid: c8c04f24d97f9d149a6ecfd9f9e314d1,
        type: 3}
      propertyPath: minigames.Array.data[6].levelID
      value: 6
      objectReference: {fileID: 0}
    - target: {fileID: 6277766264471235736, guid: c8c04f24d97f9d149a6ecfd9f9e314d1,
        type: 3}
      propertyPath: minigames.Array.data[7].levelID
      value: 7
      objectReference: {fileID: 0}
    - target: {fileID: 6277766264471235736, guid: c8c04f24d97f9d149a6ecfd9f9e314d1,
        type: 3}
      propertyPath: minigames.Array.data[8].levelID
      value: 8
      objectReference: {fileID: 0}
    - target: {fileID: 6277766264471235736, guid: c8c04f24d97f9d149a6ecfd9f9e314d1,
        type: 3}
      propertyPath: levelClick
      value: 
      objectReference: {fileID: 11400000, guid: fbbcf5a49dd800746b5eb5f8b1fc10ff,
        type: 2}
    - target: {fileID: 6277766264471235736, guid: c8c04f24d97f9d149a6ecfd9f9e314d1,
        type: 3}
      propertyPath: pOIClick
      value: 
      objectReference: {fileID: 11400000, guid: 41e71ffa8799e684496af3553e237882,
        type: 2}
    - target: {fileID: 6277766264471235736, guid: c8c04f24d97f9d149a6ecfd9f9e314d1,
        type: 3}
      propertyPath: minigames.Array.data[9].levelID
      value: 8
      objectReference: {fileID: 0}
    - target: {fileID: 6277766264471235736, guid: c8c04f24d97f9d149a6ecfd9f9e314d1,
        type: 3}
      propertyPath: minigames.Array.data[10].levelID
      value: 8
      objectReference: {fileID: 0}
    - target: {fileID: 6277766264471235736, guid: c8c04f24d97f9d149a6ecfd9f9e314d1,
        type: 3}
      propertyPath: minigames.Array.data[11].levelID
      value: 8
      objectReference: {fileID: 0}
    - target: {fileID: 6277766264471235736, guid: c8c04f24d97f9d149a6ecfd9f9e314d1,
        type: 3}
      propertyPath: minigames.Array.data[12].levelID
      value: 8
      objectReference: {fileID: 0}
    - target: {fileID: 6277766264471235736, guid: c8c04f24d97f9d149a6ecfd9f9e314d1,
        type: 3}
      propertyPath: minigames.Array.data[13].levelID
      value: 8
      objectReference: {fileID: 0}
    - target: {fileID: 6277766264471235736, guid: c8c04f24d97f9d149a6ecfd9f9e314d1,
        type: 3}
      propertyPath: minigames.Array.data[14].levelID
      value: 8
      objectReference: {fileID: 0}
    - target: {fileID: 6277766264471235736, guid: c8c04f24d97f9d149a6ecfd9f9e314d1,
        type: 3}
      propertyPath: minigames.Array.data[15].levelID
      value: 8
      objectReference: {fileID: 0}
    - target: {fileID: 6277766264471235736, guid: c8c04f24d97f9d149a6ecfd9f9e314d1,
        type: 3}
      propertyPath: minigames.Array.data[16].levelID
      value: 8
      objectReference: {fileID: 0}
    - target: {fileID: 6277766264471235736, guid: c8c04f24d97f9d149a6ecfd9f9e314d1,
        type: 3}
      propertyPath: minigames.Array.data[17].levelID
      value: 8
      objectReference: {fileID: 0}
    - target: {fileID: 6277766264471235736, guid: c8c04f24d97f9d149a6ecfd9f9e314d1,
        type: 3}
      propertyPath: minigames.Array.data[18].levelID
      value: 8
      objectReference: {fileID: 0}
    - target: {fileID: 6277766264471235736, guid: c8c04f24d97f9d149a6ecfd9f9e314d1,
        type: 3}
      propertyPath: minigames.Array.data[19].levelID
      value: 8
      objectReference: {fileID: 0}
    - target: {fileID: 6277766264471235736, guid: c8c04f24d97f9d149a6ecfd9f9e314d1,
        type: 3}
      propertyPath: minigames.Array.data[20].levelID
      value: 8
      objectReference: {fileID: 0}
    - target: {fileID: 6277766264471235736, guid: c8c04f24d97f9d149a6ecfd9f9e314d1,
        type: 3}
      propertyPath: minigames.Array.data[21].levelID
      value: 8
      objectReference: {fileID: 0}
    - target: {fileID: 6277766264471235736, guid: c8c04f24d97f9d149a6ecfd9f9e314d1,
        type: 3}
      propertyPath: minigames.Array.data[22].levelID
      value: 8
      objectReference: {fileID: 0}
    - target: {fileID: 6277766264471235736, guid: c8c04f24d97f9d149a6ecfd9f9e314d1,
        type: 3}
      propertyPath: minigames.Array.data[23].levelID
      value: 8
      objectReference: {fileID: 0}
    - target: {fileID: 6277766264471235736, guid: c8c04f24d97f9d149a6ecfd9f9e314d1,
        type: 3}
      propertyPath: minigames.Array.data[24].levelID
      value: 8
      objectReference: {fileID: 0}
    - target: {fileID: 6277766264471235736, guid: c8c04f24d97f9d149a6ecfd9f9e314d1,
        type: 3}
      propertyPath: minigames.Array.data[25].levelID
      value: 8
      objectReference: {fileID: 0}
    - target: {fileID: 6277766264471235736, guid: c8c04f24d97f9d149a6ecfd9f9e314d1,
        type: 3}
      propertyPath: minigames.Array.data[26].levelID
      value: 8
      objectReference: {fileID: 0}
    - target: {fileID: 6277766264471235736, guid: c8c04f24d97f9d149a6ecfd9f9e314d1,
        type: 3}
      propertyPath: minigames.Array.data[27].levelID
      value: 8
      objectReference: {fileID: 0}
    - target: {fileID: 6277766264471235736, guid: c8c04f24d97f9d149a6ecfd9f9e314d1,
        type: 3}
      propertyPath: minigames.Array.data[28].levelID
      value: 8
      objectReference: {fileID: 0}
    - target: {fileID: 6277766264471235736, guid: c8c04f24d97f9d149a6ecfd9f9e314d1,
        type: 3}
      propertyPath: minigames.Array.data[29].levelID
      value: 8
      objectReference: {fileID: 0}
    - target: {fileID: 823681457634228086, guid: c8c04f24d97f9d149a6ecfd9f9e314d1,
        type: 3}
      propertyPath: masterRef
      value: 
      objectReference: {fileID: 0}
    - target: {fileID: 4421073042614358106, guid: c8c04f24d97f9d149a6ecfd9f9e314d1,
        type: 3}
      propertyPath: m_Sprite
      value: 
      objectReference: {fileID: 21300000, guid: a43173289a4b60a4ba0c9d1c04ccf02a,
        type: 3}
    m_RemovedComponents: []
  m_SourcePrefab: {fileID: 100100000, guid: c8c04f24d97f9d149a6ecfd9f9e314d1, type: 3}
