%YAML 1.1
%TAG !u! tag:unity3d.com,2011:
--- !u!1001 &2105180399058862850
PrefabInstance:
  m_ObjectHideFlags: 0
  serializedVersion: 2
  m_Modification:
    m_TransformParent: {fileID: 0}
    m_Modifications:
    - target: {fileID: 1738312527336970, guid: c8d12b232acd1db488912a34e81cf413, type: 3}
      propertyPath: m_Name
      value: TrashPlastic
      objectReference: {fileID: 0}
    - target: {fileID: 224660822818429090, guid: c8d12b232acd1db488912a34e81cf413,
        type: 3}
      propertyPath: m_LocalPosition.x
      value: 0
      objectReference: {fileID: 0}
    - target: {fileID: 224660822818429090, guid: c8d12b232acd1db488912a34e81cf413,
        type: 3}
      propertyPath: m_LocalPosition.y
      value: 0
      objectReference: {fileID: 0}
    - target: {fileID: 224660822818429090, guid: c8d12b232acd1db488912a34e81cf413,
        type: 3}
      propertyPath: m_LocalPosition.z
      value: 0
      objectReference: {fileID: 0}
    - target: {fileID: 224660822818429090, guid: c8d12b232acd1db488912a34e81cf413,
        type: 3}
      propertyPath: m_LocalRotation.x
      value: 0
      objectReference: {fileID: 0}
    - target: {fileID: 224660822818429090, guid: c8d12b232acd1db488912a34e81cf413,
        type: 3}
      propertyPath: m_LocalRotation.y
      value: 0
      objectReference: {fileID: 0}
    - target: {fileID: 224660822818429090, guid: c8d12b232acd1db488912a34e81cf413,
        type: 3}
      propertyPath: m_LocalRotation.z
      value: 0
      objectReference: {fileID: 0}
    - target: {fileID: 224660822818429090, guid: c8d12b232acd1db488912a34e81cf413,
        type: 3}
      propertyPath: m_LocalRotation.w
      value: 1
      objectReference: {fileID: 0}
    - target: {fileID: 224660822818429090, guid: c8d12b232acd1db488912a34e81cf413,
        type: 3}
      propertyPath: m_RootOrder
      value: 0
      objectReference: {fileID: 0}
    - target: {fileID: 224660822818429090, guid: c8d12b232acd1db488912a34e81cf413,
        type: 3}
      propertyPath: m_LocalEulerAnglesHint.x
      value: 0
      objectReference: {fileID: 0}
    - target: {fileID: 224660822818429090, guid: c8d12b232acd1db488912a34e81cf413,
        type: 3}
      propertyPath: m_LocalEulerAnglesHint.y
      value: 0
      objectReference: {fileID: 0}
    - target: {fileID: 224660822818429090, guid: c8d12b232acd1db488912a34e81cf413,
        type: 3}
      propertyPath: m_LocalEulerAnglesHint.z
      value: 0
      objectReference: {fileID: 0}
    - target: {fileID: 224660822818429090, guid: c8d12b232acd1db488912a34e81cf413,
        type: 3}
      propertyPath: m_AnchoredPosition.x
      value: 0
      objectReference: {fileID: 0}
    - target: {fileID: 224660822818429090, guid: c8d12b232acd1db488912a34e81cf413,
        type: 3}
      propertyPath: m_AnchoredPosition.y
      value: 0
      objectReference: {fileID: 0}
    - target: {fileID: 224660822818429090, guid: c8d12b232acd1db488912a34e81cf413,
        type: 3}
      propertyPath: m_SizeDelta.x
      value: 32
      objectReference: {fileID: 0}
    - target: {fileID: 224660822818429090, guid: c8d12b232acd1db488912a34e81cf413,
        type: 3}
      propertyPath: m_SizeDelta.y
      value: 32
      objectReference: {fileID: 0}
    - target: {fileID: 224660822818429090, guid: c8d12b232acd1db488912a34e81cf413,
        type: 3}
      propertyPath: m_AnchorMin.x
      value: 0.5
      objectReference: {fileID: 0}
    - target: {fileID: 224660822818429090, guid: c8d12b232acd1db488912a34e81cf413,
        type: 3}
      propertyPath: m_AnchorMin.y
      value: 0.5
      objectReference: {fileID: 0}
    - target: {fileID: 224660822818429090, guid: c8d12b232acd1db488912a34e81cf413,
        type: 3}
      propertyPath: m_AnchorMax.x
      value: 0.5
      objectReference: {fileID: 0}
    - target: {fileID: 224660822818429090, guid: c8d12b232acd1db488912a34e81cf413,
        type: 3}
      propertyPath: m_AnchorMax.y
      value: 0.5
      objectReference: {fileID: 0}
    - target: {fileID: 224660822818429090, guid: c8d12b232acd1db488912a34e81cf413,
        type: 3}
      propertyPath: m_Pivot.x
      value: 0.5
      objectReference: {fileID: 0}
    - target: {fileID: 224660822818429090, guid: c8d12b232acd1db488912a34e81cf413,
        type: 3}
      propertyPath: m_Pivot.y
      value: 0.5
      objectReference: {fileID: 0}
    - target: {fileID: 114532116599182498, guid: c8d12b232acd1db488912a34e81cf413,
        type: 3}
      propertyPath: category
      value: 
      objectReference: {fileID: 11400000, guid: 412bc312d3ab05646bbb4b1880666b6d,
        type: 2}
    m_RemovedComponents: []
  m_SourcePrefab: {fileID: 100100000, guid: c8d12b232acd1db488912a34e81cf413, type: 3}
