%YAML 1.1
%TAG !u! tag:unity3d.com,2011:
--- !u!95 &9000718437427313983
Animator:
  serializedVersion: 3
  m_ObjectHideFlags: 0
  m_CorrespondingSourceObject: {fileID: 0}
  m_PrefabInstance: {fileID: 0}
  m_PrefabAsset: {fileID: 0}
  m_GameObject: {fileID: 5502564541339312934}
  m_Enabled: 1
  m_Avatar: {fileID: 0}
  m_Controller: {fileID: 9100000, guid: 191e37727055c66419a4ba781132c1d0, type: 2}
  m_CullingMode: 0
  m_UpdateMode: 0
  m_ApplyRootMotion: 0
  m_LinearVelocityBlending: 0
  m_WarningMessage: 
  m_HasTransformHierarchy: 1
  m_AllowConstantClipSamplingOptimization: 1
  m_KeepAnimatorControllerStateOnDisable: 0
--- !u!114 &2251797943739089296
MonoBehaviour:
  m_ObjectHideFlags: 0
  m_CorrespondingSourceObject: {fileID: 0}
  m_PrefabInstance: {fileID: 0}
  m_PrefabAsset: {fileID: 0}
  m_GameObject: {fileID: 5502564541339312934}
  m_Enabled: 1
  m_EditorHideFlags: 0
  m_Script: {fileID: 11500000, guid: 5bd1219c04619c04a83f57f00cc01d55, type: 3}
  m_Name: 
  m_EditorClassIdentifier: 
--- !u!82 &8999445386677680491
AudioSource:
  m_ObjectHideFlags: 0
  m_CorrespondingSourceObject: {fileID: 0}
  m_PrefabInstance: {fileID: 0}
  m_PrefabAsset: {fileID: 0}
  m_GameObject: {fileID: 5502564541339312934}
  m_Enabled: 1
  serializedVersion: 4
  OutputAudioMixerGroup: {fileID: 0}
  m_audioClip: {fileID: 8300000, guid: 038c79021d2d3c64ba374a8181d588f3, type: 3}
  m_PlayOnAwake: 1
  m_Volume: 1
  m_Pitch: 1
  Loop: 0
  Mute: 0
  Spatialize: 0
  SpatializePostEffects: 0
  Priority: 128
  DopplerLevel: 1
  MinDistance: 1
  MaxDistance: 500
  Pan2D: 0
  rolloffMode: 0
  BypassEffects: 0
  BypassListenerEffects: 0
  BypassReverbZones: 0
  rolloffCustomCurve:
    serializedVersion: 2
    m_Curve:
    - serializedVersion: 3
      time: 0
      value: 1
      inSlope: 0
      outSlope: 0
      tangentMode: 0
      weightedMode: 0
      inWeight: 0.33333334
      outWeight: 0.33333334
    - serializedVersion: 3
      time: 1
      value: 0
      inSlope: 0
      outSlope: 0
      tangentMode: 0
      weightedMode: 0
      inWeight: 0.33333334
      outWeight: 0.33333334
    m_PreInfinity: 2
    m_PostInfinity: 2
    m_RotationOrder: 4
  panLevelCustomCurve:
    serializedVersion: 2
    m_Curve:
    - serializedVersion: 3
      time: 0
      value: 0
      inSlope: 0
      outSlope: 0
      tangentMode: 0
      weightedMode: 0
      inWeight: 0.33333334
      outWeight: 0.33333334
    m_PreInfinity: 2
    m_PostInfinity: 2
    m_RotationOrder: 4
  spreadCustomCurve:
    serializedVersion: 2
    m_Curve:
    - serializedVersion: 3
      time: 0
      value: 0
      inSlope: 0
      outSlope: 0
      tangentMode: 0
      weightedMode: 0
      inWeight: 0.33333334
      outWeight: 0.33333334
    m_PreInfinity: 2
    m_PostInfinity: 2
    m_RotationOrder: 4
  reverbZoneMixCustomCurve:
    serializedVersion: 2
    m_Curve:
    - serializedVersion: 3
      time: 0
      value: 1
      inSlope: 0
      outSlope: 0
      tangentMode: 0
      weightedMode: 0
      inWeight: 0.33333334
      outWeight: 0.33333334
    m_PreInfinity: 2
    m_PostInfinity: 2
    m_RotationOrder: 4
--- !u!1001 &8176582499531891958
PrefabInstance:
  m_ObjectHideFlags: 0
  serializedVersion: 2
  m_Modification:
    m_TransformParent: {fileID: 0}
    m_Modifications:
    - target: {fileID: 4405654296892704720, guid: 4320cfe8977159a44afe90446550b1a8,
        type: 3}
      propertyPath: m_Name
      value: trap
      objectReference: {fileID: 0}
    - target: {fileID: 4405654296892704721, guid: 4320cfe8977159a44afe90446550b1a8,
        type: 3}
      propertyPath: m_LocalPosition.x
      value: 9.12
      objectReference: {fileID: 0}
    - target: {fileID: 4405654296892704721, guid: 4320cfe8977159a44afe90446550b1a8,
        type: 3}
      propertyPath: m_LocalPosition.y
      value: 0.72
      objectReference: {fileID: 0}
    - target: {fileID: 4405654296892704721, guid: 4320cfe8977159a44afe90446550b1a8,
        type: 3}
      propertyPath: m_LocalPosition.z
      value: 0.13867188
      objectReference: {fileID: 0}
    - target: {fileID: 4405654296892704721, guid: 4320cfe8977159a44afe90446550b1a8,
        type: 3}
      propertyPath: m_LocalRotation.x
      value: 0
      objectReference: {fileID: 0}
    - target: {fileID: 4405654296892704721, guid: 4320cfe8977159a44afe90446550b1a8,
        type: 3}
      propertyPath: m_LocalRotation.y
      value: 0
      objectReference: {fileID: 0}
    - target: {fileID: 4405654296892704721, guid: 4320cfe8977159a44afe90446550b1a8,
        type: 3}
      propertyPath: m_LocalRotation.z
      value: 0
      objectReference: {fileID: 0}
    - target: {fileID: 4405654296892704721, guid: 4320cfe8977159a44afe90446550b1a8,
        type: 3}
      propertyPath: m_LocalRotation.w
      value: 1
      objectReference: {fileID: 0}
    - target: {fileID: 4405654296892704721, guid: 4320cfe8977159a44afe90446550b1a8,
        type: 3}
      propertyPath: m_RootOrder
      value: 0
      objectReference: {fileID: 0}
    - target: {fileID: 4405654296892704721, guid: 4320cfe8977159a44afe90446550b1a8,
        type: 3}
      propertyPath: m_LocalEulerAnglesHint.x
      value: 0
      objectReference: {fileID: 0}
    - target: {fileID: 4405654296892704721, guid: 4320cfe8977159a44afe90446550b1a8,
        type: 3}
      propertyPath: m_LocalEulerAnglesHint.y
      value: 0
      objectReference: {fileID: 0}
    - target: {fileID: 4405654296892704721, guid: 4320cfe8977159a44afe90446550b1a8,
        type: 3}
      propertyPath: m_LocalEulerAnglesHint.z
      value: 0
      objectReference: {fileID: 0}
    - target: {fileID: 4405654296892704721, guid: 4320cfe8977159a44afe90446550b1a8,
        type: 3}
      propertyPath: m_LocalScale.x
      value: 0.5
      objectReference: {fileID: 0}
    - target: {fileID: 4405654296892704721, guid: 4320cfe8977159a44afe90446550b1a8,
        type: 3}
      propertyPath: m_LocalScale.y
      value: 0.5
      objectReference: {fileID: 0}
    - target: {fileID: 4405654296892704721, guid: 4320cfe8977159a44afe90446550b1a8,
        type: 3}
      propertyPath: m_LocalScale.z
      value: 0.5
      objectReference: {fileID: 0}
    - target: {fileID: 4405654296892704727, guid: 4320cfe8977159a44afe90446550b1a8,
        type: 3}
      propertyPath: m_Sprite
      value: 
      objectReference: {fileID: 21300014, guid: ce7f01309261ed64ab8ef8a3bf456c7e,
        type: 3}
    - target: {fileID: 4405654296892704727, guid: 4320cfe8977159a44afe90446550b1a8,
        type: 3}
      propertyPath: m_FlipX
      value: 0
      objectReference: {fileID: 0}
    - target: {fileID: 4405654296892704724, guid: 4320cfe8977159a44afe90446550b1a8,
        type: 3}
      propertyPath: m_BodyType
      value: 1
      objectReference: {fileID: 0}
    - target: {fileID: 4405654296892704725, guid: 4320cfe8977159a44afe90446550b1a8,
        type: 3}
      propertyPath: m_IsTrigger
      value: 1
      objectReference: {fileID: 0}
    - target: {fileID: 4405654296892704725, guid: 4320cfe8977159a44afe90446550b1a8,
        type: 3}
      propertyPath: m_Offset.y
      value: 0.06346224
      objectReference: {fileID: 0}
    - target: {fileID: 4405654296892704725, guid: 4320cfe8977159a44afe90446550b1a8,
        type: 3}
      propertyPath: m_SpriteTilingProperty.oldSize.x
      value: 2.46
      objectReference: {fileID: 0}
    - target: {fileID: 4405654296892704725, guid: 4320cfe8977159a44afe90446550b1a8,
        type: 3}
      propertyPath: m_SpriteTilingProperty.oldSize.y
      value: 1.86
      objectReference: {fileID: 0}
    - target: {fileID: 4405654296892704725, guid: 4320cfe8977159a44afe90446550b1a8,
        type: 3}
      propertyPath: m_Size.x
      value: 2.3055458
      objectReference: {fileID: 0}
    - target: {fileID: 4405654296892704725, guid: 4320cfe8977159a44afe90446550b1a8,
        type: 3}
      propertyPath: m_Size.y
      value: 0.44692448
      objectReference: {fileID: 0}
    m_RemovedComponents:
    - {fileID: 4405654296892704726, guid: 4320cfe8977159a44afe90446550b1a8, type: 3}
  m_SourcePrefab: {fileID: 100100000, guid: 4320cfe8977159a44afe90446550b1a8, type: 3}
--- !u!1 &5502564541339312934 stripped
GameObject:
  m_CorrespondingSourceObject: {fileID: 4405654296892704720, guid: 4320cfe8977159a44afe90446550b1a8,
    type: 3}
  m_PrefabInstance: {fileID: 8176582499531891958}
  m_PrefabAsset: {fileID: 0}
