%YAML 1.1
%TAG !u! tag:unity3d.com,2011:
--- !u!114 &11400000
MonoBehaviour:
  m_ObjectHideFlags: 0
  m_CorrespondingSourceObject: {fileID: 0}
  m_PrefabInstance: {fileID: 0}
  m_PrefabAsset: {fileID: 0}
  m_GameObject: {fileID: 0}
  m_Enabled: 1
  m_EditorHideFlags: 0
  m_Script: {fileID: 11500000, guid: a046154b6990b3544be464dc9cb07a6f, type: 3}
  m_Name: Memory Level 3
  m_EditorClassIdentifier: 
  pairImage:
  - {fileID: 21300000, guid: c2009712881fec74c904c28fb001cebb, type: 3}
  - {fileID: 21300000, guid: c73ab3cb4617053448bf8d980a7909c1, type: 3}
  - {fileID: 21300000, guid: cbb45d5c101e710469f1ca9445bc50f9, type: 3}
  - {fileID: 21300000, guid: 17d8b12e82dee844fa7c41de2a5045d0, type: 3}
  - {fileID: 21300000, guid: 156071b02f2fcb647b03e48b7b9e0640, type: 3}
  time: 420
  backFace: {fileID: 11400000, guid: 18ab11a323d1f8045905427312e724b6, type: 2}
