%YAML 1.1
%TAG !u! tag:unity3d.com,2011:
--- !u!114 &11400000
MonoBehaviour:
  m_ObjectHideFlags: 0
  m_CorrespondingSourceObject: {fileID: 0}
  m_PrefabInstance: {fileID: 0}
  m_PrefabAsset: {fileID: 0}
  m_GameObject: {fileID: 0}
  m_Enabled: 1
  m_EditorHideFlags: 0
  m_Script: {fileID: 11500000, guid: a046154b6990b3544be464dc9cb07a6f, type: 3}
  m_Name: Memory Level 2
  m_EditorClassIdentifier: 
  pairImage:
  - {fileID: 21300000, guid: da763a2578acfbe4a8c146256dc55b61, type: 3}
  - {fileID: 21300000, guid: cb94532545d40ec43a6d0b297977c7db, type: 3}
  - {fileID: 21300000, guid: bf101e79997683148930630ce7006290, type: 3}
  - {fileID: 21300000, guid: f870a404883b63e4e811ec3e8f90cbae, type: 3}
  time: 360
  backFace: {fileID: 11400000, guid: 18ab11a323d1f8045905427312e724b6, type: 2}
